classify-client.services.mozilla.com:HSTS	0	19438	1711002679364,1,0
firefox.settings.services.mozilla.com:HSTS	0	19438	1711002677135,1,0
services.addons.mozilla.org:HSTS	0	19438	1711002677779,1,0
incoming.telemetry.mozilla.org:HSTS	0	19438	1711002677677,1,0
contile.services.mozilla.com:HSTS	0	19438	1711002677050,1,0
shavar.services.mozilla.com^firstPartyDomain=safebrowsing.86868755-6b82-4842-b301-72671a0db32e.mozilla:HSTS	0	19438	1711002677833,1,1
location.services.mozilla.com:HSTS	0	19438	1711002675941,1,1
www.mozilla.org^partitionKey=%28http%2Cmozilla.org%29:HSTS	0	19438	1711002677029,1,0
addons.mozilla.org:HSTS	0	19438	1711002722690,1,1
normandy.cdn.mozilla.net:HSTS	0	19438	1711002679038,1,0
aus5.mozilla.org:HSTS	0	19438	1711002678482,1,0
